G-Strings|k_longest_1000_10_lex.dzn|sat|5|{0: 0, 1: 0, 2: 1, 3: 10, 4: 68, 5: 317, }|600.01
G-Strings|k_longest_1000_10_nq.dzn|sat|4|{0: 0, 1: 0, 2: 1, 3: 25, 4: 490, }|600.01
G-Strings|k_longest_1000_15_lex.dzn|opt|3|{0: 0, 1: 0, 2: 1, 3: 1, }|5.85
G-Strings|k_longest_1000_15_nq.dzn|opt|3|{0: 0, 1: 0, 2: 1, 3: 2, }|180
G-Strings|k_longest_1000_20_lex.dzn|opt|1|{0: 0, 1: 0, }|5.53
G-Strings|k_longest_1000_20_nq.dzn|opt|1|{0: 0, 1: 0, }|12.92
G-Strings|k_longest_1000_5_lex.dzn|opt|2|{0: 0, 1: 0, 2: 2, }|25.52
G-Strings|k_longest_1000_5_nq.dzn|opt|2|{0: 0, 1: 0, 2: 2, }|100.95
G-Strings|k_longest_100_10_lex.dzn|opt|0|{0: 0, }|0.16
G-Strings|k_longest_100_10_nq.dzn|opt|0|{0: 0, }|0.15
G-Strings|k_longest_100_15_lex.dzn|opt|4|{0: 0, 1: 0, 2: 0, 3: 0, 4: 0, }|0.52
G-Strings|k_longest_100_15_nq.dzn|opt|4|{0: 0, 1: 0, 2: 0, 3: 0, 4: 0, }|9.43
G-Strings|k_longest_100_20_lex.dzn|opt|1|{0: 0, 1: 0, }|0.44
G-Strings|k_longest_100_20_nq.dzn|opt|1|{0: 0, 1: 0, }|1.15
G-Strings|k_longest_100_5_lex.dzn|opt|39|{0: 0, 1: 0, 2: 0, 3: 0, 4: 0, 5: 0, 6: 0, 7: 0, 8: 0, 9: 0, 10: 0, 11: 0, 12: 0, 13: 0, 14: 0, 15: 0, 16: 0, 17: 0, 18: 0, 19: 0, 20: 0, 21: 0, 22: 0, 23: 0, 24: 0, 25: 0, 26: 0, 27: 0, 28: 0, 29: 0, 30: 0, 31: 0, 32: 0, 33: 0, 34: 0, 35: 0, 36: 0, 37: 0, 38: 0, 39: 0, }|0.27
G-Strings|k_longest_100_5_nq.dzn|opt|39|{0: 0, 1: 0, 2: 0, 3: 0, 4: 0, 5: 0, 6: 0, 7: 0, 8: 0, 9: 0, 10: 0, 11: 0, 12: 0, 13: 0, 14: 0, 15: 0, 16: 0, 17: 0, 18: 0, 19: 0, 20: 0, 21: 0, 22: 0, 23: 0, 24: 0, 25: 0, 26: 0, 27: 0, 28: 0, 29: 0, 30: 0, 31: 0, 32: 0, 33: 0, 34: 0, 35: 0, 36: 0, 37: 0, 38: 0, 39: 0, }|0.27
G-Strings|k_longest_250_10_lex.dzn|opt|0|{0: 0, }|0.1
G-Strings|k_longest_250_10_nq.dzn|opt|0|{0: 0, }|0.09
G-Strings|k_longest_250_15_lex.dzn|opt|9|{0: 0, 1: 0, 2: 0, 3: 1, 4: 1, 5: 2, 6: 5, 7: 14, 8: 34, 9: 72, }|129.79
G-Strings|k_longest_250_15_nq.dzn|sat|7|{0: 0, 1: 0, 2: 0, 3: 0, 4: 2, 5: 4, 6: 26, 7: 280, }|600.01
G-Strings|k_longest_250_20_lex.dzn|opt|2|{0: 0, 1: 0, 2: 0, }|1.22
G-Strings|k_longest_250_20_nq.dzn|opt|2|{0: 1, 1: 1, 2: 1, }|19.74
G-Strings|k_longest_250_5_lex.dzn|opt|3|{0: 0, 1: 0, 2: 0, 3: 2, }|55.3
G-Strings|k_longest_250_5_nq.dzn|opt|3|{0: 1, 1: 1, 2: 1, 3: 2, }|116.24
G-Strings|k_longest_500_10_lex.dzn|opt|5|{0: 0, 1: 0, 2: 0, 3: 2, 4: 8, 5: 19, }|37.18
G-Strings|k_longest_500_10_nq.dzn|sat|5|{0: 0, 1: 0, 2: 0, 3: 3, 4: 23, 5: 146, }|600.02
G-Strings|k_longest_500_15_lex.dzn|opt|2|{0: 0, 1: 0, 2: 0, }|3.58
G-Strings|k_longest_500_15_nq.dzn|opt|2|{0: 0, 1: 0, 2: 0, }|27.09
G-Strings|k_longest_500_20_lex.dzn|opt|5|{0: 0, 1: 0, 2: 0, 3: 0, 4: 1, 5: 2, }|12.56
G-Strings|k_longest_500_20_nq.dzn|sat|5|{0: 0, 1: 0, 2: 1, 3: 1, 4: 2, 5: 7, }|600.02
G-Strings|k_longest_500_5_lex.dzn|opt|37|{0: 1, 1: 1, 2: 1, 3: 1, 4: 1, 5: 1, 6: 1, 7: 1, 8: 1, 9: 1, 10: 1, 11: 1, 12: 1, 13: 1, 14: 1, 15: 1, 16: 1, 17: 1, 18: 1, 19: 1, 20: 2, 21: 33, 22: 42, 23: 52, 24: 61, 25: 69, 26: 77, 27: 83, 28: 89, 29: 95, 30: 100, 31: 105, 32: 109, 33: 112, 34: 115, 35: 118, 36: 120, 37: 122, }|123.83
G-Strings|k_longest_500_5_nq.dzn|opt|37|{0: 0, 1: 0, 2: 0, 3: 0, 4: 1, 5: 1, 6: 1, 7: 1, 8: 1, 9: 1, 10: 1, 11: 1, 12: 1, 13: 1, 14: 1, 15: 1, 16: 1, 17: 1, 18: 1, 19: 1, 20: 3, 21: 78, 22: 98, 23: 117, 24: 135, 25: 152, 26: 168, 27: 182, 28: 196, 29: 209, 30: 220, 31: 230, 32: 239, 33: 247, 34: 254, 35: 260, 36: 264, 37: 268, }|272.11
G-Strings|k_longest_750_10_lex.dzn|sat|9|{0: 0, 1: 0, 2: 0, 3: 0, 4: 1, 5: 6, 6: 12, 7: 43, 8: 76, 9: 242, }|600.02
G-Strings|k_longest_750_10_nq.dzn|sat|8|{0: 0, 1: 0, 2: 0, 3: 0, 4: 1, 5: 12, 6: 25, 7: 216, 8: 434, }|600.01
G-Strings|k_longest_750_15_lex.dzn|opt|0|{0: 0, }|0.72
G-Strings|k_longest_750_15_nq.dzn|opt|0|{0: 0, }|0.5
G-Strings|k_longest_750_20_lex.dzn|opt|2|{0: 0, 1: 0, 2: 0, }|5.52
G-Strings|k_longest_750_20_nq.dzn|opt|2|{0: 0, 1: 0, 2: 0, }|52.3
G-Strings|k_longest_750_5_lex.dzn|opt|2|{0: 0, 1: 0, 2: 0, }|1.72
G-Strings|k_longest_750_5_nq.dzn|opt|2|{0: 0, 1: 0, 2: 0, }|2.61
cvc4|k_longest_1000_10.smt2|sat|1|{0: 0, 1: 179, }|600.02
cvc4|k_longest_1000_15.smt2|sat|1|{0: 0, 1: 1, }|600.01
cvc4|k_longest_1000_20.smt2|sat|1|{0: 0, 1: 170, }|600.01
cvc4|k_longest_1000_5.smt2|sat|1|{0: 0, 1: 0, }|600.01
cvc4|k_longest_100_10.smt2|opt|0|{0: 0, }|482.64
cvc4|k_longest_100_15.smt2|sat|2|{0: 0, 1: 2, 2: 2, }|600.01
cvc4|k_longest_100_20.smt2|sat|1|{0: 1, 1: 13, }|600.01
cvc4|k_longest_100_5.smt2|sat|6|{0: 1, 1: 7, 2: 103, 3: 157, 4: 292, 5: 361, 6: 546, }|600.01
cvc4|k_longest_250_10.smt2|opt|0|{0: 0, }|4.81
cvc4|k_longest_250_15.smt2|sat|2|{0: 0, 1: 9, 2: 15, }|600.01
cvc4|k_longest_250_20.smt2|sat|1|{0: 0, 1: 224, }|600.01
cvc4|k_longest_250_5.smt2|unk|nan|{}|600.01
cvc4|k_longest_500_10.smt2|sat|1|{0: 0, 1: 1, }|600.01
cvc4|k_longest_500_15.smt2|sat|0|{0: 0, }|600.01
cvc4|k_longest_500_20.smt2|sat|1|{0: 0, 1: 10, }|600.01
cvc4|k_longest_500_5.smt2|sat|1|{0: 0, 1: 480, }|600.01
cvc4|k_longest_750_10.smt2|sat|1|{0: 0, 1: 1, }|600.01
cvc4|k_longest_750_15.smt2|sat|0|{0: 0, }|600.01
cvc4|k_longest_750_20.smt2|unk|nan|{}|600.01
cvc4|k_longest_750_5.smt2|sat|0|{0: 0, }|600.01
z3|k_longest_1000_10.smt2|unk|nan|{}|600.05
z3|k_longest_1000_15.smt2|unk|nan|{}|600.03
z3|k_longest_1000_20.smt2|unk|nan|{}|600.02
z3|k_longest_1000_5.smt2|sat|0|{0: 255, }|254.91
z3|k_longest_100_10.smt2|sat|0|{0: 20, }|20.05
z3|k_longest_100_15.smt2|sat|0|{0: 97, }|96.69
z3|k_longest_100_20.smt2|sat|0|{0: 128, }|128.45
z3|k_longest_100_5.smt2|opt|39|{1: 0, 2: 0, 3: 0, 4: 0, 5: 0, 6: 0, 7: 0, 8: 1, 9: 1, 10: 1, 11: 1, 12: 1, 13: 1, 14: 1, 15: 1, 16: 1, 17: 2, 18: 2, 19: 2, 20: 2, 21: 2, 22: 3, 23: 3, 24: 3, 25: 3, 26: 3, 27: 4, 28: 4, 29: 4, 30: 4, 31: 5, 32: 5, 33: 6, 34: 6, 35: 6, 36: 7, 37: 7, 38: 7, 39: 7, }|7.06
z3|k_longest_250_10.smt2|sat|0|{0: 8, }|8.47
z3|k_longest_250_15.smt2|unk|nan|{}|600.04
z3|k_longest_250_20.smt2|unk|nan|{}|600.04
z3|k_longest_250_5.smt2|sat|0|{0: 10, }|10.71
z3|k_longest_500_10.smt2|unk|nan|{}|600.04
z3|k_longest_500_15.smt2|unk|nan|{}|600.05
z3|k_longest_500_20.smt2|unk|nan|{}|600.04
z3|k_longest_500_5.smt2|sat|16|{0: 5, 1: 5, 2: 5, 3: 5, 4: 5, 5: 5, 6: 5, 7: 5, 8: 5, 9: 5, 10: 5, 11: 5, 12: 5, 13: 5, 14: 5, 15: 75, 16: 344, }|600.02
z3|k_longest_750_10.smt2|unk|nan|{}|600.05
z3|k_longest_750_15.smt2|unk|nan|{}|600.03
z3|k_longest_750_20.smt2|unk|nan|{}|600.06
z3|k_longest_750_5.smt2|opt|2|{0: 47, 1: 64, 2: 120, }|122.25
